{
  "fileTypes": {
    "html": {
      "total": 353522,
      "files": [
        {
          "file": "C:\\Users\\Dan\\Documents\\Gulp\\web\\dist\\index.html",
          "size": 118015
        },
        {
          "file": "C:\\Users\\Dan\\Documents\\Gulp\\web\\dist\\ru\\index.html",
          "size": 118015
        },
        {
          "file": "C:\\Users\\Dan\\Documents\\Gulp\\web\\dist\\ua\\index.html",
          "size": 117492
        }
      ],
      "percentage": 589
    },
    "json": {
      "total": 327,
      "files": [
        {
          "file": "C:\\Users\\Dan\\Documents\\Gulp\\web\\dist\\manifest.json",
          "size": 327
        }
      ],
      "percentage": 1
    },
    "css": {
      "total": 409877,
      "files": [
        {
          "file": "C:\\Users\\Dan\\Documents\\Gulp\\web\\dist\\assets\\css\\bootstrap-better-nav.min.css",
          "size": 1070
        },
        {
          "file": "C:\\Users\\Dan\\Documents\\Gulp\\web\\dist\\assets\\css\\swiper-bundle.min.css",
          "size": 12573
        },
        {
          "file": "C:\\Users\\Dan\\Documents\\Gulp\\web\\dist\\assets\\css\\swiper-icons.css",
          "size": 145
        },
        {
          "file": "C:\\Users\\Dan\\Documents\\Gulp\\web\\dist\\assets\\fonts\\font-awesome.min.css",
          "size": 30979
        },
        {
          "file": "C:\\Users\\Dan\\Documents\\Gulp\\web\\dist\\assets\\fonts\\fontawesome-all.min.css",
          "size": 54459
        },
        {
          "file": "C:\\Users\\Dan\\Documents\\Gulp\\web\\dist\\assets\\fonts\\fontawesome5-overrides.min.css",
          "size": 566
        },
        {
          "file": "C:\\Users\\Dan\\Documents\\Gulp\\web\\dist\\assets\\fonts\\ionicons.min.css",
          "size": 51263
        },
        {
          "file": "C:\\Users\\Dan\\Documents\\Gulp\\web\\dist\\assets\\fonts\\line-awesome.min.css",
          "size": 28090
        },
        {
          "file": "C:\\Users\\Dan\\Documents\\Gulp\\web\\dist\\assets\\fonts\\material-icons.min.css",
          "size": 686
        },
        {
          "file": "C:\\Users\\Dan\\Documents\\Gulp\\web\\dist\\assets\\fonts\\simple-line-icons.min.css",
          "size": 10914
        },
        {
          "file": "C:\\Users\\Dan\\Documents\\Gulp\\web\\dist\\assets\\bootstrap\\css\\bootstrap.min.css",
          "size": 106003
        },
        {
          "file": "C:\\Users\\Dan\\Documents\\Gulp\\web\\dist\\assets\\css\\my\\b.css",
          "size": 66614
        },
        {
          "file": "C:\\Users\\Dan\\Documents\\Gulp\\web\\dist\\assets\\css\\my\\styles.css",
          "size": 45969
        },
        {
          "file": "C:\\Users\\Dan\\Documents\\Gulp\\web\\dist\\assets\\css\\my\\TDM-Waves-for-zones.css",
          "size": 546
        }
      ],
      "percentage": 683
    },
    "fonts": {
      "total": 6343982,
      "files": [
        {
          "file": "C:\\Users\\Dan\\Documents\\Gulp\\web\\dist\\assets\\fonts\\fa-brands-400.eot",
          "size": 125320
        },
        {
          "file": "C:\\Users\\Dan\\Documents\\Gulp\\web\\dist\\assets\\fonts\\fa-brands-400.svg",
          "size": 660056
        },
        {
          "file": "C:\\Users\\Dan\\Documents\\Gulp\\web\\dist\\assets\\fonts\\fa-brands-400.ttf",
          "size": 125016
        },
        {
          "file": "C:\\Users\\Dan\\Documents\\Gulp\\web\\dist\\assets\\fonts\\fa-brands-400.woff",
          "size": 84568
        },
        {
          "file": "C:\\Users\\Dan\\Documents\\Gulp\\web\\dist\\assets\\fonts\\fa-brands-400.woff2",
          "size": 72148
        },
        {
          "file": "C:\\Users\\Dan\\Documents\\Gulp\\web\\dist\\assets\\fonts\\fa-regular-400.eot",
          "size": 34388
        },
        {
          "file": "C:\\Users\\Dan\\Documents\\Gulp\\web\\dist\\assets\\fonts\\fa-regular-400.svg",
          "size": 144523
        },
        {
          "file": "C:\\Users\\Dan\\Documents\\Gulp\\web\\dist\\assets\\fonts\\fa-regular-400.ttf",
          "size": 34092
        },
        {
          "file": "C:\\Users\\Dan\\Documents\\Gulp\\web\\dist\\assets\\fonts\\fa-regular-400.woff",
          "size": 16812
        },
        {
          "file": "C:\\Users\\Dan\\Documents\\Gulp\\web\\dist\\assets\\fonts\\fa-regular-400.woff2",
          "size": 13608
        },
        {
          "file": "C:\\Users\\Dan\\Documents\\Gulp\\web\\dist\\assets\\fonts\\fa-solid-900.eot",
          "size": 186512
        },
        {
          "file": "C:\\Users\\Dan\\Documents\\Gulp\\web\\dist\\assets\\fonts\\fa-solid-900.svg",
          "size": 816218
        },
        {
          "file": "C:\\Users\\Dan\\Documents\\Gulp\\web\\dist\\assets\\fonts\\fa-solid-900.ttf",
          "size": 186228
        },
        {
          "file": "C:\\Users\\Dan\\Documents\\Gulp\\web\\dist\\assets\\fonts\\fa-solid-900.woff",
          "size": 96248
        },
        {
          "file": "C:\\Users\\Dan\\Documents\\Gulp\\web\\dist\\assets\\fonts\\fa-solid-900.woff2",
          "size": 74320
        },
        {
          "file": "C:\\Users\\Dan\\Documents\\Gulp\\web\\dist\\assets\\fonts\\fontawesome-webfont.eot",
          "size": 165742
        },
        {
          "file": "C:\\Users\\Dan\\Documents\\Gulp\\web\\dist\\assets\\fonts\\fontawesome-webfont.svg",
          "size": 444379
        },
        {
          "file": "C:\\Users\\Dan\\Documents\\Gulp\\web\\dist\\assets\\fonts\\fontawesome-webfont.ttf",
          "size": 165548
        },
        {
          "file": "C:\\Users\\Dan\\Documents\\Gulp\\web\\dist\\assets\\fonts\\fontawesome-webfont.woff",
          "size": 98024
        },
        {
          "file": "C:\\Users\\Dan\\Documents\\Gulp\\web\\dist\\assets\\fonts\\fontawesome-webfont.woff2",
          "size": 77160
        },
        {
          "file": "C:\\Users\\Dan\\Documents\\Gulp\\web\\dist\\assets\\fonts\\FontAwesome.otf",
          "size": 134808
        },
        {
          "file": "C:\\Users\\Dan\\Documents\\Gulp\\web\\dist\\assets\\fonts\\ionicons.eot",
          "size": 120724
        },
        {
          "file": "C:\\Users\\Dan\\Documents\\Gulp\\web\\dist\\assets\\fonts\\ionicons.svg",
          "size": 333834
        },
        {
          "file": "C:\\Users\\Dan\\Documents\\Gulp\\web\\dist\\assets\\fonts\\ionicons.ttf",
          "size": 188508
        },
        {
          "file": "C:\\Users\\Dan\\Documents\\Gulp\\web\\dist\\assets\\fonts\\ionicons.woff",
          "size": 67904
        },
        {
          "file": "C:\\Users\\Dan\\Documents\\Gulp\\web\\dist\\assets\\fonts\\line-awesome.eot",
          "size": 112916
        },
        {
          "file": "C:\\Users\\Dan\\Documents\\Gulp\\web\\dist\\assets\\fonts\\line-awesome.svg",
          "size": 433695
        },
        {
          "file": "C:\\Users\\Dan\\Documents\\Gulp\\web\\dist\\assets\\fonts\\line-awesome.ttf",
          "size": 112728
        },
        {
          "file": "C:\\Users\\Dan\\Documents\\Gulp\\web\\dist\\assets\\fonts\\line-awesome.woff",
          "size": 57436
        },
        {
          "file": "C:\\Users\\Dan\\Documents\\Gulp\\web\\dist\\assets\\fonts\\line-awesome.woff2",
          "size": 45108
        },
        {
          "file": "C:\\Users\\Dan\\Documents\\Gulp\\web\\dist\\assets\\fonts\\MaterialIcons-Regular.eot",
          "size": 143258
        },
        {
          "file": "C:\\Users\\Dan\\Documents\\Gulp\\web\\dist\\assets\\fonts\\MaterialIcons-Regular.svg",
          "size": 281658
        },
        {
          "file": "C:\\Users\\Dan\\Documents\\Gulp\\web\\dist\\assets\\fonts\\MaterialIcons-Regular.ttf",
          "size": 128180
        },
        {
          "file": "C:\\Users\\Dan\\Documents\\Gulp\\web\\dist\\assets\\fonts\\MaterialIcons-Regular.woff",
          "size": 57620
        },
        {
          "file": "C:\\Users\\Dan\\Documents\\Gulp\\web\\dist\\assets\\fonts\\MaterialIcons-Regular.woff2",
          "size": 44300
        },
        {
          "file": "C:\\Users\\Dan\\Documents\\Gulp\\web\\dist\\assets\\fonts\\Simple-Line-Icons.eot",
          "size": 54266
        },
        {
          "file": "C:\\Users\\Dan\\Documents\\Gulp\\web\\dist\\assets\\fonts\\Simple-Line-Icons.svg",
          "size": 239045
        },
        {
          "file": "C:\\Users\\Dan\\Documents\\Gulp\\web\\dist\\assets\\fonts\\Simple-Line-Icons.ttf",
          "size": 54056
        },
        {
          "file": "C:\\Users\\Dan\\Documents\\Gulp\\web\\dist\\assets\\fonts\\Simple-Line-Icons.woff",
          "size": 81332
        },
        {
          "file": "C:\\Users\\Dan\\Documents\\Gulp\\web\\dist\\assets\\fonts\\Simple-Line-Icons.woff2",
          "size": 30064
        },
        {
          "file": "C:\\Users\\Dan\\Documents\\Gulp\\web\\dist\\assets\\fonts\\swiper-icons.woff",
          "size": 1632
        }
      ],
      "percentage": 10573
    },
    "js": {
      "total": 472758,
      "files": [
        {
          "file": "C:\\Users\\Dan\\Documents\\Gulp\\web\\dist\\assets\\js\\bootstrap-better-nav.min.js",
          "size": 995
        },
        {
          "file": "C:\\Users\\Dan\\Documents\\Gulp\\web\\dist\\assets\\js\\bs-init.js",
          "size": 67
        },
        {
          "file": "C:\\Users\\Dan\\Documents\\Gulp\\web\\dist\\assets\\js\\jquery.countdown.min.js",
          "size": 4552
        },
        {
          "file": "C:\\Users\\Dan\\Documents\\Gulp\\web\\dist\\assets\\js\\jquery.easing.min.js",
          "size": 2532
        },
        {
          "file": "C:\\Users\\Dan\\Documents\\Gulp\\web\\dist\\assets\\js\\jquery.inputmask.min.js",
          "size": 142806
        },
        {
          "file": "C:\\Users\\Dan\\Documents\\Gulp\\web\\dist\\assets\\js\\jquery.min.js",
          "size": 88145
        },
        {
          "file": "C:\\Users\\Dan\\Documents\\Gulp\\web\\dist\\assets\\js\\swiper-bundle.min.js",
          "size": 139390
        },
        {
          "file": "C:\\Users\\Dan\\Documents\\Gulp\\web\\dist\\assets\\bootstrap\\js\\bootstrap.min.js",
          "size": 78635
        },
        {
          "file": "C:\\Users\\Dan\\Documents\\Gulp\\web\\dist\\assets\\js\\my\\b.js",
          "size": 8964
        },
        {
          "file": "C:\\Users\\Dan\\Documents\\Gulp\\web\\dist\\assets\\js\\my\\base.js",
          "size": 1141
        },
        {
          "file": "C:\\Users\\Dan\\Documents\\Gulp\\web\\dist\\assets\\js\\my\\init-slider.js",
          "size": 1999
        },
        {
          "file": "C:\\Users\\Dan\\Documents\\Gulp\\web\\dist\\assets\\js\\my\\map.js",
          "size": 1413
        },
        {
          "file": "C:\\Users\\Dan\\Documents\\Gulp\\web\\dist\\assets\\js\\my\\Scroll-To-Top-smooth.js",
          "size": 2119
        }
      ],
      "percentage": 788
    },
    "jp2": {
      "total": 9396018,
      "files": [
        {
          "file": "C:\\Users\\Dan\\Documents\\Gulp\\web\\dist\\assets\\img\\banner\\20-y.jp2",
          "size": 595249
        },
        {
          "file": "C:\\Users\\Dan\\Documents\\Gulp\\web\\dist\\assets\\img\\banner\\h-turbo.jp2",
          "size": 1153944
        },
        {
          "file": "C:\\Users\\Dan\\Documents\\Gulp\\web\\dist\\assets\\img\\logo\\logo-2-black-4.jp2",
          "size": 61642
        },
        {
          "file": "C:\\Users\\Dan\\Documents\\Gulp\\web\\dist\\assets\\img\\logo\\logo-2-black-6.jp2",
          "size": 48914
        },
        {
          "file": "C:\\Users\\Dan\\Documents\\Gulp\\web\\dist\\assets\\img\\manufacturer\\BW-logo.jp2",
          "size": 31033
        },
        {
          "file": "C:\\Users\\Dan\\Documents\\Gulp\\web\\dist\\assets\\img\\manufacturer\\garret_logo.jp2",
          "size": 33028
        },
        {
          "file": "C:\\Users\\Dan\\Documents\\Gulp\\web\\dist\\assets\\img\\manufacturer\\hitachi-logo.jp2",
          "size": 5758
        },
        {
          "file": "C:\\Users\\Dan\\Documents\\Gulp\\web\\dist\\assets\\img\\manufacturer\\Holset_Logo.jp2",
          "size": 36035
        },
        {
          "file": "C:\\Users\\Dan\\Documents\\Gulp\\web\\dist\\assets\\img\\manufacturer\\IHI_logo.jp2",
          "size": 14050
        },
        {
          "file": "C:\\Users\\Dan\\Documents\\Gulp\\web\\dist\\assets\\img\\manufacturer\\Logo-Mistubishi.jp2",
          "size": 6956
        },
        {
          "file": "C:\\Users\\Dan\\Documents\\Gulp\\web\\dist\\assets\\img\\manufacturer\\melett_small_normal_logo.jp2",
          "size": 10938
        },
        {
          "file": "C:\\Users\\Dan\\Documents\\Gulp\\web\\dist\\assets\\img\\manufacturer\\Schwitzer-logo.jp2",
          "size": 6578
        },
        {
          "file": "C:\\Users\\Dan\\Documents\\Gulp\\web\\dist\\assets\\img\\manufacturer\\Turbolader-logo.jp2",
          "size": 36822
        },
        {
          "file": "C:\\Users\\Dan\\Documents\\Gulp\\web\\dist\\assets\\img\\pc\\form-right.jp2",
          "size": 424565
        },
        {
          "file": "C:\\Users\\Dan\\Documents\\Gulp\\web\\dist\\assets\\img\\people\\man-fix.jp2",
          "size": 505764
        },
        {
          "file": "C:\\Users\\Dan\\Documents\\Gulp\\web\\dist\\assets\\img\\people\\tablet-price-bg-small.jp2",
          "size": 179408
        },
        {
          "file": "C:\\Users\\Dan\\Documents\\Gulp\\web\\dist\\assets\\img\\phones\\kievstar.jp2",
          "size": 33320
        },
        {
          "file": "C:\\Users\\Dan\\Documents\\Gulp\\web\\dist\\assets\\img\\phones\\life.jp2",
          "size": 152323
        },
        {
          "file": "C:\\Users\\Dan\\Documents\\Gulp\\web\\dist\\assets\\img\\phones\\vodafon.jp2",
          "size": 13827
        },
        {
          "file": "C:\\Users\\Dan\\Documents\\Gulp\\web\\dist\\assets\\img\\reviewer's cars\\right-quote-sign.jp2",
          "size": 108793
        },
        {
          "file": "C:\\Users\\Dan\\Documents\\Gulp\\web\\dist\\assets\\img\\services\\p1.jp2",
          "size": 100200
        },
        {
          "file": "C:\\Users\\Dan\\Documents\\Gulp\\web\\dist\\assets\\img\\services\\p2.jp2",
          "size": 98897
        },
        {
          "file": "C:\\Users\\Dan\\Documents\\Gulp\\web\\dist\\assets\\img\\services\\p3.jp2",
          "size": 79415
        },
        {
          "file": "C:\\Users\\Dan\\Documents\\Gulp\\web\\dist\\assets\\img\\services\\p4.jp2",
          "size": 50410
        },
        {
          "file": "C:\\Users\\Dan\\Documents\\Gulp\\web\\dist\\assets\\img\\vehicle type\\car.jp2",
          "size": 644539
        },
        {
          "file": "C:\\Users\\Dan\\Documents\\Gulp\\web\\dist\\assets\\img\\vehicle type\\locomotive.jp2",
          "size": 545637
        },
        {
          "file": "C:\\Users\\Dan\\Documents\\Gulp\\web\\dist\\assets\\img\\vehicle type\\quadbike3.jp2",
          "size": 526860
        },
        {
          "file": "C:\\Users\\Dan\\Documents\\Gulp\\web\\dist\\assets\\img\\vehicle type\\truck.jp2",
          "size": 593532
        },
        {
          "file": "C:\\Users\\Dan\\Documents\\Gulp\\web\\dist\\assets\\img\\vehicle type\\trucktor.jp2",
          "size": 488916
        },
        {
          "file": "C:\\Users\\Dan\\Documents\\Gulp\\web\\dist\\assets\\img\\vehicle type\\yacht.jp2",
          "size": 343685
        },
        {
          "file": "C:\\Users\\Dan\\Documents\\Gulp\\web\\dist\\assets\\img\\reviewer's cars\\cars\\benz.jp2",
          "size": 900515
        },
        {
          "file": "C:\\Users\\Dan\\Documents\\Gulp\\web\\dist\\assets\\img\\reviewer's cars\\cars\\land-rover.jp2",
          "size": 665169
        },
        {
          "file": "C:\\Users\\Dan\\Documents\\Gulp\\web\\dist\\assets\\img\\reviewer's cars\\cars\\renault.jp2",
          "size": 351298
        },
        {
          "file": "C:\\Users\\Dan\\Documents\\Gulp\\web\\dist\\assets\\img\\reviewer's cars\\cars\\VW-Mechanic.jp2",
          "size": 503909
        },
        {
          "file": "C:\\Users\\Dan\\Documents\\Gulp\\web\\dist\\assets\\img\\reviewer's cars\\people\\1--.jp2",
          "size": 9274
        },
        {
          "file": "C:\\Users\\Dan\\Documents\\Gulp\\web\\dist\\assets\\img\\reviewer's cars\\people\\2--.jp2",
          "size": 13269
        },
        {
          "file": "C:\\Users\\Dan\\Documents\\Gulp\\web\\dist\\assets\\img\\reviewer's cars\\people\\3--.jp2",
          "size": 7125
        },
        {
          "file": "C:\\Users\\Dan\\Documents\\Gulp\\web\\dist\\assets\\img\\reviewer's cars\\people\\4--.jp2",
          "size": 14421
        }
      ],
      "percentage": 15660
    },
    "images": {
      "total": 4806887,
      "files": [
        {
          "file": "C:\\Users\\Dan\\Documents\\Gulp\\web\\dist\\assets\\img\\banner\\20-y.jpg",
          "size": 268539
        },
        {
          "file": "C:\\Users\\Dan\\Documents\\Gulp\\web\\dist\\assets\\img\\banner\\h-turbo.jpg",
          "size": 227091
        },
        {
          "file": "C:\\Users\\Dan\\Documents\\Gulp\\web\\dist\\assets\\img\\logo\\logo-2-black-4.png",
          "size": 36440
        },
        {
          "file": "C:\\Users\\Dan\\Documents\\Gulp\\web\\dist\\assets\\img\\logo\\logo-2-black-6.png",
          "size": 27489
        },
        {
          "file": "C:\\Users\\Dan\\Documents\\Gulp\\web\\dist\\assets\\img\\manufacturer\\BW-logo.png",
          "size": 20373
        },
        {
          "file": "C:\\Users\\Dan\\Documents\\Gulp\\web\\dist\\assets\\img\\manufacturer\\garret_logo.png",
          "size": 27759
        },
        {
          "file": "C:\\Users\\Dan\\Documents\\Gulp\\web\\dist\\assets\\img\\manufacturer\\hitachi-logo.png",
          "size": 3909
        },
        {
          "file": "C:\\Users\\Dan\\Documents\\Gulp\\web\\dist\\assets\\img\\manufacturer\\Holset_Logo.png",
          "size": 22519
        },
        {
          "file": "C:\\Users\\Dan\\Documents\\Gulp\\web\\dist\\assets\\img\\manufacturer\\IHI_logo.png",
          "size": 6923
        },
        {
          "file": "C:\\Users\\Dan\\Documents\\Gulp\\web\\dist\\assets\\img\\manufacturer\\Logo-Mistubishi.png",
          "size": 5019
        },
        {
          "file": "C:\\Users\\Dan\\Documents\\Gulp\\web\\dist\\assets\\img\\manufacturer\\melett_small_normal_logo.png",
          "size": 6554
        },
        {
          "file": "C:\\Users\\Dan\\Documents\\Gulp\\web\\dist\\assets\\img\\manufacturer\\Schwitzer-logo.png",
          "size": 5078
        },
        {
          "file": "C:\\Users\\Dan\\Documents\\Gulp\\web\\dist\\assets\\img\\manufacturer\\Turbolader-logo.png",
          "size": 18239
        },
        {
          "file": "C:\\Users\\Dan\\Documents\\Gulp\\web\\dist\\assets\\img\\pc\\form-right.png",
          "size": 316088
        },
        {
          "file": "C:\\Users\\Dan\\Documents\\Gulp\\web\\dist\\assets\\img\\people\\man-fix.png",
          "size": 497562
        },
        {
          "file": "C:\\Users\\Dan\\Documents\\Gulp\\web\\dist\\assets\\img\\people\\tablet-price-bg-small.png",
          "size": 201972
        },
        {
          "file": "C:\\Users\\Dan\\Documents\\Gulp\\web\\dist\\assets\\img\\phones\\kievstar.svg",
          "size": 2129
        },
        {
          "file": "C:\\Users\\Dan\\Documents\\Gulp\\web\\dist\\assets\\img\\phones\\life.png",
          "size": 44987
        },
        {
          "file": "C:\\Users\\Dan\\Documents\\Gulp\\web\\dist\\assets\\img\\phones\\vodafon.svg",
          "size": 653
        },
        {
          "file": "C:\\Users\\Dan\\Documents\\Gulp\\web\\dist\\assets\\img\\reviewer's cars\\right-quote-sign.svg",
          "size": 769
        },
        {
          "file": "C:\\Users\\Dan\\Documents\\Gulp\\web\\dist\\assets\\img\\services\\p1.png",
          "size": 29875
        },
        {
          "file": "C:\\Users\\Dan\\Documents\\Gulp\\web\\dist\\assets\\img\\services\\p2.png",
          "size": 27224
        },
        {
          "file": "C:\\Users\\Dan\\Documents\\Gulp\\web\\dist\\assets\\img\\services\\p3.png",
          "size": 20751
        },
        {
          "file": "C:\\Users\\Dan\\Documents\\Gulp\\web\\dist\\assets\\img\\services\\p4.png",
          "size": 42815
        },
        {
          "file": "C:\\Users\\Dan\\Documents\\Gulp\\web\\dist\\assets\\img\\vehicle type\\car.jpg",
          "size": 337844
        },
        {
          "file": "C:\\Users\\Dan\\Documents\\Gulp\\web\\dist\\assets\\img\\vehicle type\\locomotive.jpg",
          "size": 211936
        },
        {
          "file": "C:\\Users\\Dan\\Documents\\Gulp\\web\\dist\\assets\\img\\vehicle type\\quadbike3.jpg",
          "size": 362353
        },
        {
          "file": "C:\\Users\\Dan\\Documents\\Gulp\\web\\dist\\assets\\img\\vehicle type\\truck.jpg",
          "size": 424387
        },
        {
          "file": "C:\\Users\\Dan\\Documents\\Gulp\\web\\dist\\assets\\img\\vehicle type\\trucktor.jpg",
          "size": 226980
        },
        {
          "file": "C:\\Users\\Dan\\Documents\\Gulp\\web\\dist\\assets\\img\\vehicle type\\yacht.jpg",
          "size": 177999
        },
        {
          "file": "C:\\Users\\Dan\\Documents\\Gulp\\web\\dist\\assets\\img\\reviewer's cars\\cars\\benz.jpg",
          "size": 197552
        },
        {
          "file": "C:\\Users\\Dan\\Documents\\Gulp\\web\\dist\\assets\\img\\reviewer's cars\\cars\\land-rover.jpg",
          "size": 449130
        },
        {
          "file": "C:\\Users\\Dan\\Documents\\Gulp\\web\\dist\\assets\\img\\reviewer's cars\\cars\\renault.jpg",
          "size": 212212
        },
        {
          "file": "C:\\Users\\Dan\\Documents\\Gulp\\web\\dist\\assets\\img\\reviewer's cars\\cars\\VW-Mechanic.jpg",
          "size": 313474
        },
        {
          "file": "C:\\Users\\Dan\\Documents\\Gulp\\web\\dist\\assets\\img\\reviewer's cars\\people\\1--.jpg",
          "size": 5691
        },
        {
          "file": "C:\\Users\\Dan\\Documents\\Gulp\\web\\dist\\assets\\img\\reviewer's cars\\people\\2--.jpg",
          "size": 10321
        },
        {
          "file": "C:\\Users\\Dan\\Documents\\Gulp\\web\\dist\\assets\\img\\reviewer's cars\\people\\3--.jpg",
          "size": 5011
        },
        {
          "file": "C:\\Users\\Dan\\Documents\\Gulp\\web\\dist\\assets\\img\\reviewer's cars\\people\\4--.jpg",
          "size": 11240
        }
      ],
      "percentage": 8011
    },
    "jxr": {
      "total": 4154695,
      "files": [
        {
          "file": "C:\\Users\\Dan\\Documents\\Gulp\\web\\dist\\assets\\img\\banner\\20-y.jxr",
          "size": 280161
        },
        {
          "file": "C:\\Users\\Dan\\Documents\\Gulp\\web\\dist\\assets\\img\\banner\\h-turbo.jxr",
          "size": 526112
        },
        {
          "file": "C:\\Users\\Dan\\Documents\\Gulp\\web\\dist\\assets\\img\\logo\\logo-2-black-4.jxr",
          "size": 13567
        },
        {
          "file": "C:\\Users\\Dan\\Documents\\Gulp\\web\\dist\\assets\\img\\logo\\logo-2-black-6.jxr",
          "size": 13612
        },
        {
          "file": "C:\\Users\\Dan\\Documents\\Gulp\\web\\dist\\assets\\img\\manufacturer\\BW-logo.jxr",
          "size": 8122
        },
        {
          "file": "C:\\Users\\Dan\\Documents\\Gulp\\web\\dist\\assets\\img\\manufacturer\\garret_logo.jxr",
          "size": 11837
        },
        {
          "file": "C:\\Users\\Dan\\Documents\\Gulp\\web\\dist\\assets\\img\\manufacturer\\hitachi-logo.jxr",
          "size": 1770
        },
        {
          "file": "C:\\Users\\Dan\\Documents\\Gulp\\web\\dist\\assets\\img\\manufacturer\\Holset_Logo.jxr",
          "size": 6689
        },
        {
          "file": "C:\\Users\\Dan\\Documents\\Gulp\\web\\dist\\assets\\img\\manufacturer\\IHI_logo.jxr",
          "size": 5831
        },
        {
          "file": "C:\\Users\\Dan\\Documents\\Gulp\\web\\dist\\assets\\img\\manufacturer\\Logo-Mistubishi.jxr",
          "size": 2318
        },
        {
          "file": "C:\\Users\\Dan\\Documents\\Gulp\\web\\dist\\assets\\img\\manufacturer\\melett_small_normal_logo.jxr",
          "size": 5695
        },
        {
          "file": "C:\\Users\\Dan\\Documents\\Gulp\\web\\dist\\assets\\img\\manufacturer\\Schwitzer-logo.jxr",
          "size": 2349
        },
        {
          "file": "C:\\Users\\Dan\\Documents\\Gulp\\web\\dist\\assets\\img\\manufacturer\\Turbolader-logo.jxr",
          "size": 7993
        },
        {
          "file": "C:\\Users\\Dan\\Documents\\Gulp\\web\\dist\\assets\\img\\pc\\form-right.jxr",
          "size": 151456
        },
        {
          "file": "C:\\Users\\Dan\\Documents\\Gulp\\web\\dist\\assets\\img\\people\\man-fix.jxr",
          "size": 154661
        },
        {
          "file": "C:\\Users\\Dan\\Documents\\Gulp\\web\\dist\\assets\\img\\people\\tablet-price-bg-small.jxr",
          "size": 55323
        },
        {
          "file": "C:\\Users\\Dan\\Documents\\Gulp\\web\\dist\\assets\\img\\phones\\life.jxr",
          "size": 259750
        },
        {
          "file": "C:\\Users\\Dan\\Documents\\Gulp\\web\\dist\\assets\\img\\services\\p1.jxr",
          "size": 26003
        },
        {
          "file": "C:\\Users\\Dan\\Documents\\Gulp\\web\\dist\\assets\\img\\services\\p2.jxr",
          "size": 27135
        },
        {
          "file": "C:\\Users\\Dan\\Documents\\Gulp\\web\\dist\\assets\\img\\services\\p3.jxr",
          "size": 19683
        },
        {
          "file": "C:\\Users\\Dan\\Documents\\Gulp\\web\\dist\\assets\\img\\services\\p4.jxr",
          "size": 14875
        },
        {
          "file": "C:\\Users\\Dan\\Documents\\Gulp\\web\\dist\\assets\\img\\vehicle type\\car.jxr",
          "size": 301580
        },
        {
          "file": "C:\\Users\\Dan\\Documents\\Gulp\\web\\dist\\assets\\img\\vehicle type\\locomotive.jxr",
          "size": 251825
        },
        {
          "file": "C:\\Users\\Dan\\Documents\\Gulp\\web\\dist\\assets\\img\\vehicle type\\quadbike3.jxr",
          "size": 237265
        },
        {
          "file": "C:\\Users\\Dan\\Documents\\Gulp\\web\\dist\\assets\\img\\vehicle type\\truck.jxr",
          "size": 275839
        },
        {
          "file": "C:\\Users\\Dan\\Documents\\Gulp\\web\\dist\\assets\\img\\vehicle type\\trucktor.jxr",
          "size": 207661
        },
        {
          "file": "C:\\Users\\Dan\\Documents\\Gulp\\web\\dist\\assets\\img\\vehicle type\\yacht.jxr",
          "size": 161410
        },
        {
          "file": "C:\\Users\\Dan\\Documents\\Gulp\\web\\dist\\assets\\img\\reviewer's cars\\cars\\benz.jxr",
          "size": 472014
        },
        {
          "file": "C:\\Users\\Dan\\Documents\\Gulp\\web\\dist\\assets\\img\\reviewer's cars\\cars\\land-rover.jxr",
          "size": 278781
        },
        {
          "file": "C:\\Users\\Dan\\Documents\\Gulp\\web\\dist\\assets\\img\\reviewer's cars\\cars\\renault.jxr",
          "size": 142592
        },
        {
          "file": "C:\\Users\\Dan\\Documents\\Gulp\\web\\dist\\assets\\img\\reviewer's cars\\cars\\VW-Mechanic.jxr",
          "size": 214895
        },
        {
          "file": "C:\\Users\\Dan\\Documents\\Gulp\\web\\dist\\assets\\img\\reviewer's cars\\people\\1--.jxr",
          "size": 3410
        },
        {
          "file": "C:\\Users\\Dan\\Documents\\Gulp\\web\\dist\\assets\\img\\reviewer's cars\\people\\2--.jxr",
          "size": 4920
        },
        {
          "file": "C:\\Users\\Dan\\Documents\\Gulp\\web\\dist\\assets\\img\\reviewer's cars\\people\\3--.jxr",
          "size": 2406
        },
        {
          "file": "C:\\Users\\Dan\\Documents\\Gulp\\web\\dist\\assets\\img\\reviewer's cars\\people\\4--.jxr",
          "size": 5155
        }
      ],
      "percentage": 6924
    },
    "webp": {
      "total": 1020968,
      "files": [
        {
          "file": "C:\\Users\\Dan\\Documents\\Gulp\\web\\dist\\assets\\img\\banner\\20-y.webp",
          "size": 31776
        },
        {
          "file": "C:\\Users\\Dan\\Documents\\Gulp\\web\\dist\\assets\\img\\banner\\h-turbo.webp",
          "size": 131552
        },
        {
          "file": "C:\\Users\\Dan\\Documents\\Gulp\\web\\dist\\assets\\img\\logo\\logo-2-black-4.webp",
          "size": 10056
        },
        {
          "file": "C:\\Users\\Dan\\Documents\\Gulp\\web\\dist\\assets\\img\\logo\\logo-2-black-6.webp",
          "size": 6322
        },
        {
          "file": "C:\\Users\\Dan\\Documents\\Gulp\\web\\dist\\assets\\img\\manufacturer\\BW-logo.webp",
          "size": 6600
        },
        {
          "file": "C:\\Users\\Dan\\Documents\\Gulp\\web\\dist\\assets\\img\\manufacturer\\garret_logo.webp",
          "size": 5980
        },
        {
          "file": "C:\\Users\\Dan\\Documents\\Gulp\\web\\dist\\assets\\img\\manufacturer\\hitachi-logo.webp",
          "size": 2102
        },
        {
          "file": "C:\\Users\\Dan\\Documents\\Gulp\\web\\dist\\assets\\img\\manufacturer\\Holset_Logo.webp",
          "size": 5002
        },
        {
          "file": "C:\\Users\\Dan\\Documents\\Gulp\\web\\dist\\assets\\img\\manufacturer\\IHI_logo.webp",
          "size": 1710
        },
        {
          "file": "C:\\Users\\Dan\\Documents\\Gulp\\web\\dist\\assets\\img\\manufacturer\\Logo-Mistubishi.webp",
          "size": 2620
        },
        {
          "file": "C:\\Users\\Dan\\Documents\\Gulp\\web\\dist\\assets\\img\\manufacturer\\melett_small_normal_logo.webp",
          "size": 3046
        },
        {
          "file": "C:\\Users\\Dan\\Documents\\Gulp\\web\\dist\\assets\\img\\manufacturer\\Schwitzer-logo.webp",
          "size": 2958
        },
        {
          "file": "C:\\Users\\Dan\\Documents\\Gulp\\web\\dist\\assets\\img\\manufacturer\\Turbolader-logo.webp",
          "size": 6298
        },
        {
          "file": "C:\\Users\\Dan\\Documents\\Gulp\\web\\dist\\assets\\img\\pc\\form-right.webp",
          "size": 41900
        },
        {
          "file": "C:\\Users\\Dan\\Documents\\Gulp\\web\\dist\\assets\\img\\people\\man-fix.webp",
          "size": 34574
        },
        {
          "file": "C:\\Users\\Dan\\Documents\\Gulp\\web\\dist\\assets\\img\\people\\tablet-price-bg-small.webp",
          "size": 16114
        },
        {
          "file": "C:\\Users\\Dan\\Documents\\Gulp\\web\\dist\\assets\\img\\phones\\life.webp",
          "size": 27702
        },
        {
          "file": "C:\\Users\\Dan\\Documents\\Gulp\\web\\dist\\assets\\img\\services\\p1.webp",
          "size": 11000
        },
        {
          "file": "C:\\Users\\Dan\\Documents\\Gulp\\web\\dist\\assets\\img\\services\\p2.webp",
          "size": 10576
        },
        {
          "file": "C:\\Users\\Dan\\Documents\\Gulp\\web\\dist\\assets\\img\\services\\p3.webp",
          "size": 9876
        },
        {
          "file": "C:\\Users\\Dan\\Documents\\Gulp\\web\\dist\\assets\\img\\services\\p4.webp",
          "size": 8066
        },
        {
          "file": "C:\\Users\\Dan\\Documents\\Gulp\\web\\dist\\assets\\img\\vehicle type\\car.webp",
          "size": 71248
        },
        {
          "file": "C:\\Users\\Dan\\Documents\\Gulp\\web\\dist\\assets\\img\\vehicle type\\locomotive.webp",
          "size": 68476
        },
        {
          "file": "C:\\Users\\Dan\\Documents\\Gulp\\web\\dist\\assets\\img\\vehicle type\\quadbike3.webp",
          "size": 61928
        },
        {
          "file": "C:\\Users\\Dan\\Documents\\Gulp\\web\\dist\\assets\\img\\vehicle type\\truck.webp",
          "size": 95638
        },
        {
          "file": "C:\\Users\\Dan\\Documents\\Gulp\\web\\dist\\assets\\img\\vehicle type\\trucktor.webp",
          "size": 42378
        },
        {
          "file": "C:\\Users\\Dan\\Documents\\Gulp\\web\\dist\\assets\\img\\vehicle type\\yacht.webp",
          "size": 47716
        },
        {
          "file": "C:\\Users\\Dan\\Documents\\Gulp\\web\\dist\\assets\\img\\reviewer's cars\\cars\\benz.webp",
          "size": 108974
        },
        {
          "file": "C:\\Users\\Dan\\Documents\\Gulp\\web\\dist\\assets\\img\\reviewer's cars\\cars\\land-rover.webp",
          "size": 64856
        },
        {
          "file": "C:\\Users\\Dan\\Documents\\Gulp\\web\\dist\\assets\\img\\reviewer's cars\\cars\\renault.webp",
          "size": 36092
        },
        {
          "file": "C:\\Users\\Dan\\Documents\\Gulp\\web\\dist\\assets\\img\\reviewer's cars\\cars\\VW-Mechanic.webp",
          "size": 41072
        },
        {
          "file": "C:\\Users\\Dan\\Documents\\Gulp\\web\\dist\\assets\\img\\reviewer's cars\\people\\1--.webp",
          "size": 1334
        },
        {
          "file": "C:\\Users\\Dan\\Documents\\Gulp\\web\\dist\\assets\\img\\reviewer's cars\\people\\2--.webp",
          "size": 2088
        },
        {
          "file": "C:\\Users\\Dan\\Documents\\Gulp\\web\\dist\\assets\\img\\reviewer's cars\\people\\3--.webp",
          "size": 824
        },
        {
          "file": "C:\\Users\\Dan\\Documents\\Gulp\\web\\dist\\assets\\img\\reviewer's cars\\people\\4--.webp",
          "size": 2514
        }
      ],
      "percentage": 1702
    }
  },
  "budget": 60000,
  "totalSize": 26959034,
  "remainingBudget": -26899034
}
